0.1 0.386966
0.3 0.24211
0.5 0.234916
0.7 0.232784
0.9 0.232802
1.1 0.233443
1.3 0.234633
1.5 0.236455
1.7 0.23828
1.9 0.239749
2.1 0.242306
2.3 0.243968
2.5 0.246211
2.7 0.248772
2.9 0.250471
3.1 0.252625
3.3 0.255557
3.5 0.257816
3.7 0.260571
3.9 0.26291
4.1 0.266017
4.3 0.268183
4.5 0.27083
4.7 0.273631
4.9 0.276939
5.1 0.280007
5.3 0.282124
5.5 0.285943
5.7 0.288844
5.9 0.29265
6.1 0.296114
6.3 0.299497
6.5 0.302908
6.7 0.306446
6.9 0.30988
7.1 0.313522
7.3 0.317953
7.5 0.321441
7.7 0.326324
7.9 0.330495
8.1 0.335042
8.3 0.339039
8.5 0.343457
8.7 0.348627
8.9 0.354267
9.1 0.358771
9.3 0.363774
9.5 0.369392
9.7 0.375023
9.9 0.381635
10.1 0.386824
10.3 0.393954
10.5 0.399481
10.7 0.405853
10.9 0.414419
11.1 0.420472
11.3 0.428247
11.5 0.436734
11.7 0.444057
11.9 0.453333
12.1 0.461678
12.3 0.47239
12.5 0.480464
12.7 0.489681
12.9 0.502812
13.1 0.513542
13.3 0.526695
13.5 0.539951
13.7 0.55298
13.9 0.569046
14.1 0.58363
14.3 0.599179
14.5 0.617748
14.7 0.635813
14.9 0.654467
15.1 0.677191
15.3 0.702813
15.5 0.72584
15.7 0.756367
15.9 0.786504
16.1 0.818867
16.3 0.855305
16.5 0.899161
16.7 0.944931
16.9 1
17.1 1.05996
17.3 1.13147
17.5 1.22387
17.7 1.3251
17.9 1.45241
18.1 1.61813
18.3 1.82685
18.5 2.15208
18.7 2.65379
18.9 3.58567
19.1 5.66798
19.3 11.9381
19.5 27.135
19.7 56.4098
19.9 111.433
