*
* Tim Evans' preliminary LHCb model, version 10 (initial model) - 27/09/2013
*
* NB. This model does not include acceptance corrections
*
*
RandomSeed   5

"Phases given in"       "rad"
"Event Pattern"         421 321 -211 -211 211

"Nevents"               10000

"IntegPrecision"        2.0e-3
"IntegMethod"           "efficient"

CheckFractionsFirst  1
*
* NB. The model is normalised such that the non-resonant component is real and of unit length
*
** name                                                          Fix?  init	    step	min  max
*
*
**********************************************
** D0 -> K_1(1270)+(->K*0 pi+) pi-
**********************************************
D0->K(1)(1270)+(->K*(892)0(->pi-,K+),pi+),pi-_Re                 2     0.08657      0.0176313   0    0
D0->K(1)(1270)+(->K*(892)0(->pi-,K+),pi+),pi-_Im                 2     0.0966162    0.0184101   0    0
*
**********************************************
** D0 -> K_1(1400)+(->K*0 pi+) pi-
**********************************************
D0->K(1)(1400)+(->K*(892)0(->pi-,K+),pi+),pi-_Re                 2     0.481007     0.0487056   0    0
D0->K(1)(1400)+(->K*(892)0(->pi-,K+),pi+),pi-_Im                 2     0.0933135    0.0436705   0    0
*
**********************************************
** D0 -> K+ pi- pi- pi+ non-resonant
**********************************************
D0->K+,pi+,pi-,pi-_Re                                            2     1            0           0    0
D0->K+,pi+,pi-,pi-_Im                                            2     0            0           0    0
*
**********************************************
** D0 -> {K+ pi-}_S rho0
**********************************************
D0->NonResS0(->K+,pi-),rho(770)0(->pi+,pi-)_Re                   2     -0.00502323  0.0656401   0    0
D0->NonResS0(->K+,pi-),rho(770)0(->pi+,pi-)_Im                   2     0.359026     0.0761888   0    0
*
**********************************************
** D0 -> {pi+ pi-}_V K*0 (P-wave)
**********************************************
D0[P]->NonResVbar0(->pi+,pi-),K*(892)0(->K+,pi-)_Re              2     -1.073       0.19865     0    0
D0[P]->NonResVbar0(->pi+,pi-),K*(892)0(->K+,pi-)_Im              2     -0.645784    0.141257    0    0
*
**********************************************
** D0 -> K_1(1270)+(-> rho0/omega0 K+) pi-
**********************************************
RHO_OMEGAD0->K(1)(1270)+(->rho(770)0(->pi-,pi+),K+),pi-_Re       2     -9.67955     1.15718     0    0
RHO_OMEGAD0->K(1)(1270)+(->rho(770)0(->pi-,pi+),K+),pi-_Im       2     -6.05905     1.14191     0    0
*
**********************************************
** D0 -> K*0 rho0/omega0
**********************************************
RHO_OMEGAD0->K*(892)0(->K+,pi-),rho(770)0(->pi+,pi-)_Re          2     -3.52102     0.375786    0    0
RHO_OMEGAD0->K*(892)0(->K+,pi-),rho(770)0(->pi+,pi-)_Im          2     1.57231      0.435618    0    0
*
**********************************************
** D0 -> K*0 rho0/omega0 (D-wave)
**********************************************
RHO_OMEGAD0[D]->K*(892)0(->K+,pi-),rho(770)0(->pi+,pi-)_Re       2     8.94871      0.874431    0    0
RHO_OMEGAD0[D]->K*(892)0(->K+,pi-),rho(770)0(->pi+,pi-)_Im       2     1.03064      0.926233    0    0

